…
# Question 2

Tokenize the the words in the transcription column -Count the number of
times each token appears -Visualize the top 20 most frequent words
-Explain what we see from this result. Does it makes sense? What
insights (if any) do we get?

``` r
mts %>%
  unnest_tokens(token, transcription) %>%
  count(token,sort = TRUE)
```

    ## # A tibble: 23,646 × 2
    ##    token        n
    ##    <chr>    <int>
    ##  1 the     149888
    ##  2 and      82779
    ##  3 was      71765
    ##  4 of       59205
    ##  5 to       50632
    ##  6 a        42810
    ##  7 with     35815
    ##  8 in       32807
    ##  9 is       26378
    ## 10 patient  22065
    ## # … with 23,636 more rows
…
